Suite/Test/Step Name,Browser,Description,Tag,Start time,End time,Duration,Status
TestSuiteExcel,Chrome 74.0.3729.131,,,2019-05-13 14:50:29,2019-05-13 14:51:15,46.210s,PASSED
,,,,,,,
Test Cases/test_katalon2,Chrome 74.0.3729.131,,,2019-05-13 14:50:29,2019-05-13 14:51:15,45.922s,PASSED
Start listener action : sampleBeforeTestCase,Chrome 74.0.3729.131,,,2019-05-13 14:50:29,2019-05-13 14:50:29,0.001s,PASSED
"openBrowser("""")",Chrome 74.0.3729.131,,,2019-05-13 14:50:29,2019-05-13 14:50:33,3.606s,PASSED
"navigateToUrl(""http://katalon-demo-cura.herokuapp.com"")",Chrome 74.0.3729.131,,,2019-05-13 14:50:33,2019-05-13 14:50:47,14.041s,PASSED
"get.Screencapture.getEntirePage("""")",Chrome 74.0.3729.131,,,2019-05-13 14:50:47,2019-05-13 14:50:51,4.003s,PASSED
"click(findTestObject(""web katalon/Page_CURA Healthcare Service/a_Make Appointment""))",Chrome 74.0.3729.131,,,2019-05-13 14:50:51,2019-05-13 14:50:52,1.119s,PASSED
"get.Screencapture.getEntirePage("""")",Chrome 74.0.3729.131,,,2019-05-13 14:50:52,2019-05-13 14:50:55,3.233s,PASSED
"setText(findTestObject(""web katalon/Page_CURA Healthcare Service/input_Username_username""), ""John Doe"")",Chrome 74.0.3729.131,,,2019-05-13 14:50:55,2019-05-13 14:50:55,0.155s,PASSED
"get.Screencapture.getEntirePage("""")",Chrome 74.0.3729.131,,,2019-05-13 14:50:55,2019-05-13 14:50:59,3.270s,PASSED
"setEncryptedText(findTestObject(""web katalon/Page_CURA Healthcare Service/input_Password_password""), ""g3/DOGG74jC3Flrr3yH+3D/yKbOqqUNM"")",Chrome 74.0.3729.131,,,2019-05-13 14:50:59,2019-05-13 14:50:59,0.165s,PASSED
"get.Screencapture.getEntirePage("""")",Chrome 74.0.3729.131,,,2019-05-13 14:50:59,2019-05-13 14:51:02,3.328s,PASSED
"click(findTestObject(""web katalon/Page_CURA Healthcare Service/button_Login""))",Chrome 74.0.3729.131,,,2019-05-13 14:51:02,2019-05-13 14:51:03,1.111s,PASSED
"get.Screencapture.getEntirePage("""")",Chrome 74.0.3729.131,,,2019-05-13 14:51:03,2019-05-13 14:51:07,3.267s,PASSED
"click(findTestObject(""web katalon/Page_CURA Healthcare Service/a_CURA Healthcare_menu-toggle""))",Chrome 74.0.3729.131,,,2019-05-13 14:51:07,2019-05-13 14:51:07,0.068s,PASSED
"get.Screencapture.getEntirePage("""")",Chrome 74.0.3729.131,,,2019-05-13 14:51:07,2019-05-13 14:51:10,3.202s,PASSED
"click(findTestObject(""web katalon/Page_CURA Healthcare Service/a_Logout""))",Chrome 74.0.3729.131,,,2019-05-13 14:51:10,2019-05-13 14:51:10,0.610s,PASSED
"get.Screencapture.getEntirePage("""")",Chrome 74.0.3729.131,,,2019-05-13 14:51:10,2019-05-13 14:51:14,3.769s,PASSED
closeBrowser(),Chrome 74.0.3729.131,,,2019-05-13 14:51:14,2019-05-13 14:51:15,0.682s,PASSED
Start listener action : sampleAfterTestCase,Chrome 74.0.3729.131,,,2019-05-13 14:51:15,2019-05-13 14:51:15,0.000s,PASSED
